{
    "pack": {
        "description": "coalexplosion resources",
        "pack_format": 6,
        "_comment": "A pack_format of 4 requires json lang files. Note: we require v4 pack meta for all mods."
    }
}
